src/common/mult32x32/mult_tb.vcd
$date
	Thu Jul 23 16:56:33 2020
$end
$version
	Icarus Verilog
$end
$timescale
	1ps
$end
$scope module mult_tb $end
$var wire 128 ! ret [127:0] $end
$var wire 128 " carry [127:0] $end
$var reg 1 # clk $end
$var reg 1 $ rst_n $end
$var reg 128 % x [127:0] $end
$var reg 128 & y [127:0] $end
$scope module mult_inst $end
$var wire 1 # clk $end
$var wire 1 $ rst_n $end
$var wire 128 ' x [127:0] $end
$var wire 128 ( y [127:0] $end
$var wire 16 ) y7 [15:0] $end
$var wire 16 * y6 [15:0] $end
$var wire 16 + y5 [15:0] $end
$var wire 16 , y4 [15:0] $end
$var wire 16 - y3 [15:0] $end
$var wire 16 . y2 [15:0] $end
$var wire 16 / y1 [15:0] $end
$var wire 16 0 y0 [15:0] $end
$var wire 16 1 x7 [15:0] $end
$var wire 16 2 x6 [15:0] $end
$var wire 16 3 x5 [15:0] $end
$var wire 16 4 x4 [15:0] $end
$var wire 16 5 x3 [15:0] $end
$var wire 16 6 x2 [15:0] $end
$var wire 16 7 x1 [15:0] $end
$var wire 16 8 x0 [15:0] $end
$var reg 128 9 carry [127:0] $end
$var reg 128 : ret [127:0] $end
$var reg 256 ; sum000_s [255:0] $end
$var reg 256 < sum010 [255:0] $end
$var reg 256 = sum011 [255:0] $end
$var reg 256 > sum020 [255:0] $end
$var reg 256 ? sum021 [255:0] $end
$var reg 256 @ sum022 [255:0] $end
$var reg 256 A sum030 [255:0] $end
$var reg 256 B sum031 [255:0] $end
$var reg 256 C sum032 [255:0] $end
$var reg 256 D sum033 [255:0] $end
$var reg 256 E sum040 [255:0] $end
$var reg 256 F sum041 [255:0] $end
$var reg 256 G sum042 [255:0] $end
$var reg 256 H sum043 [255:0] $end
$var reg 256 I sum044 [255:0] $end
$var reg 256 J sum050 [255:0] $end
$var reg 256 K sum051 [255:0] $end
$var reg 256 L sum052 [255:0] $end
$var reg 256 M sum053 [255:0] $end
$var reg 256 N sum054 [255:0] $end
$var reg 256 O sum055 [255:0] $end
$var reg 256 P sum060 [255:0] $end
$var reg 256 Q sum061 [255:0] $end
$var reg 256 R sum062 [255:0] $end
$var reg 256 S sum063 [255:0] $end
$var reg 256 T sum064 [255:0] $end
$var reg 256 U sum065 [255:0] $end
$var reg 256 V sum066 [255:0] $end
$var reg 256 W sum070 [255:0] $end
$var reg 256 X sum071 [255:0] $end
$var reg 256 Y sum072 [255:0] $end
$var reg 256 Z sum073 [255:0] $end
$var reg 256 [ sum074 [255:0] $end
$var reg 256 \ sum075 [255:0] $end
$var reg 256 ] sum076 [255:0] $end
$var reg 256 ^ sum077_s [255:0] $end
$var reg 256 _ sum101_s [255:0] $end
$var reg 256 ` sum102 [255:0] $end
$var reg 256 a sum103 [255:0] $end
$var reg 256 b sum104_a [255:0] $end
$var reg 256 c sum104_b [255:0] $end
$var reg 256 d sum105_a [255:0] $end
$var reg 256 e sum105_b [255:0] $end
$var reg 256 f sum106_a [255:0] $end
$var reg 256 g sum106_b [255:0] $end
$var reg 256 h sum107_a [255:0] $end
$var reg 256 i sum107_b [255:0] $end
$var reg 256 j sum108_a [255:0] $end
$var reg 256 k sum108_b [255:0] $end
$var reg 256 l sum109_a [255:0] $end
$var reg 256 m sum109_b [255:0] $end
$var reg 256 n sum110_a [255:0] $end
$var reg 256 o sum110_b [255:0] $end
$var reg 256 p sum111 [255:0] $end
$var reg 256 q sum112 [255:0] $end
$var reg 256 r sum113_s [255:0] $end
$var reg 256 s sum1_1400 [255:0] $end
$var reg 256 t sum202_s [255:0] $end
$var reg 256 u sum203_s [255:0] $end
$var reg 256 v sum204 [255:0] $end
$var reg 256 w sum205 [255:0] $end
$var reg 256 x sum206 [255:0] $end
$var reg 256 y sum207 [255:0] $end
$var reg 256 z sum208 [255:0] $end
$var reg 256 { sum209 [255:0] $end
$var reg 256 | sum210 [255:0] $end
$var reg 256 } sum211_s [255:0] $end
$var reg 256 ~ sum212_s [255:0] $end
$var reg 256 !" sum2_1301 [255:0] $end
$var reg 256 "" sum2_1400 [255:0] $end
$var reg 256 #" sum304_s [255:0] $end
$var reg 256 $" sum305_s [255:0] $end
$var reg 256 %" sum306_s [255:0] $end
$var reg 256 &" sum307_s [255:0] $end
$var reg 256 '" sum308_s [255:0] $end
$var reg 256 (" sum309_s [255:0] $end
$var reg 256 )" sum310_s [255:0] $end
$var reg 256 *" sum3_0302 [255:0] $end
$var reg 256 +" sum3_1211 [255:0] $end
$var reg 256 ," sum3_1413 [255:0] $end
$var reg 256 -" sum4_0 [255:0] $end
$var reg 256 ." sum4_1 [255:0] $end
$var reg 256 /" sum4_2 [255:0] $end
$var reg 256 0" sum4_3 [255:0] $end
$var reg 256 1" sum4_4 [255:0] $end
$var reg 256 2" sum5_0 [255:0] $end
$var reg 256 3" sum5_1 [255:0] $end
$var reg 256 4" sum5_2 [255:0] $end
$var reg 256 5" sum6_0 [255:0] $end
$var reg 256 6" sum6_1 [255:0] $end
$var reg 32 7" x0y0 [31:0] $end
$var reg 32 8" x0y1 [31:0] $end
$var reg 32 9" x0y2 [31:0] $end
$var reg 32 :" x0y3 [31:0] $end
$var reg 32 ;" x0y4 [31:0] $end
$var reg 32 <" x0y5 [31:0] $end
$var reg 32 =" x0y6 [31:0] $end
$var reg 32 >" x0y7 [31:0] $end
$var reg 32 ?" x1y0 [31:0] $end
$var reg 32 @" x1y1 [31:0] $end
$var reg 32 A" x1y2 [31:0] $end
$var reg 32 B" x1y3 [31:0] $end
$var reg 32 C" x1y4 [31:0] $end
$var reg 32 D" x1y5 [31:0] $end
$var reg 32 E" x1y6 [31:0] $end
$var reg 32 F" x1y7 [31:0] $end
$var reg 32 G" x2y0 [31:0] $end
$var reg 32 H" x2y1 [31:0] $end
$var reg 32 I" x2y2 [31:0] $end
$var reg 32 J" x2y3 [31:0] $end
$var reg 32 K" x2y4 [31:0] $end
$var reg 32 L" x2y5 [31:0] $end
$var reg 32 M" x2y6 [31:0] $end
$var reg 32 N" x2y7 [31:0] $end
$var reg 32 O" x3y0 [31:0] $end
$var reg 32 P" x3y1 [31:0] $end
$var reg 32 Q" x3y2 [31:0] $end
$var reg 32 R" x3y3 [31:0] $end
$var reg 32 S" x3y4 [31:0] $end
$var reg 32 T" x3y5 [31:0] $end
$var reg 32 U" x3y6 [31:0] $end
$var reg 32 V" x3y7 [31:0] $end
$var reg 32 W" x4y0 [31:0] $end
$var reg 32 X" x4y1 [31:0] $end
$var reg 32 Y" x4y2 [31:0] $end
$var reg 32 Z" x4y3 [31:0] $end
$var reg 32 [" x4y4 [31:0] $end
$var reg 32 \" x4y5 [31:0] $end
$var reg 32 ]" x4y6 [31:0] $end
$var reg 32 ^" x4y7 [31:0] $end
$var reg 32 _" x5y0 [31:0] $end
$var reg 32 `" x5y1 [31:0] $end
$var reg 32 a" x5y2 [31:0] $end
$var reg 32 b" x5y3 [31:0] $end
$var reg 32 c" x5y4 [31:0] $end
$var reg 32 d" x5y5 [31:0] $end
$var reg 32 e" x5y6 [31:0] $end
$var reg 32 f" x5y7 [31:0] $end
$var reg 32 g" x6y0 [31:0] $end
$var reg 32 h" x6y1 [31:0] $end
$var reg 32 i" x6y2 [31:0] $end
$var reg 32 j" x6y3 [31:0] $end
$var reg 32 k" x6y4 [31:0] $end
$var reg 32 l" x6y5 [31:0] $end
$var reg 32 m" x6y6 [31:0] $end
$var reg 32 n" x6y7 [31:0] $end
$var reg 32 o" x7y0 [31:0] $end
$var reg 32 p" x7y1 [31:0] $end
$var reg 32 q" x7y2 [31:0] $end
$var reg 32 r" x7y3 [31:0] $end
$var reg 32 s" x7y4 [31:0] $end
$var reg 32 t" x7y5 [31:0] $end
$var reg 32 u" x7y6 [31:0] $end
$var reg 32 v" x7y7 [31:0] $end
$upscope $end
$upscope $end
$enddefinitions $end
#0
$dumpvars
bx v"
bx u"
bx t"
bx s"
bx r"
bx q"
bx p"
bx o"
bx n"
bx m"
bx l"
bx k"
bx j"
bx i"
bx h"
bx g"
bx f"
bx e"
bx d"
bx c"
bx b"
bx a"
bx `"
bx _"
bx ^"
bx ]"
bx \"
bx ["
bx Z"
bx Y"
bx X"
bx W"
bx V"
bx U"
bx T"
bx S"
bx R"
bx Q"
bx P"
bx O"
bx N"
bx M"
bx L"
bx K"
bx J"
bx I"
bx H"
bx G"
bx F"
bx E"
bx D"
bx C"
bx B"
bx A"
bx @"
bx ?"
bx >"
bx ="
bx <"
bx ;"
bx :"
bx 9"
bx 8"
bx 7"
bx 6"
bx 5"
bx 4"
bx 3"
bx 2"
bx 1"
bx 0"
bx /"
bx ."
bx -"
bx ,"
bx +"
bx *"
bx )"
bx ("
bx '"
bx &"
bx %"
bx $"
bx #"
bx ""
bx !"
bx ~
bx }
bx |
bx {
bx z
bx y
bx x
bx w
bx v
bx u
bx t
bx s
bx r
bx q
bx p
bx o
bx n
bx m
bx l
bx k
bx j
bx i
bx h
bx g
bx f
bx e
bx d
bx c
bx b
bx a
bx `
bx _
bx ^
bx ]
bx \
bx [
bx Z
bx Y
bx X
bx W
bx V
bx U
bx T
bx S
bx R
bx Q
bx P
bx O
bx N
bx M
bx L
bx K
bx J
bx I
bx H
bx G
bx F
bx E
bx D
bx C
bx B
bx A
bx @
bx ?
bx >
bx =
bx <
bx ;
bx :
bx 9
bx 8
bx 7
bx 6
bx 5
bx 4
bx 3
bx 2
bx 1
bx 0
bx /
bx .
bx -
bx ,
bx +
bx *
bx )
bx (
bx '
bx &
bx %
0$
0#
bx "
bx !
$end
#5000
b0xxxxxxxxxxxxxxxxxxxxxxxxxxxxxxxx ;
b0xxxxxxxxxxxxxxxxxxxxxxxxxxxxxxxx =
b0xxxxxxxxxxxxxxxxxxxxxxxxxxxxxxxx @
b0xxxxxxxxxxxxxxxxxxxxxxxxxxxxxxxx D
b0xxxxxxxxxxxxxxxxxxxxxxxxxxxxxxxx I
b0xxxxxxxxxxxxxxxxxxxxxxxxxxxxxxxx O
b0xxxxxxxxxxxxxxxxxxxxxxxxxxxxxxxx V
bx0000000000000000 _
bx0000000000000000000000000000000000000000000000000000000000000000000000000000000000000000000000000000000000000000000000000000000000000000000000000000000000000000000000000000000000000000000000000000000000000000 r
bx00000000000000000000000000000000 t
bx000000000000000000000000000000000000000000000000 u
bx00000000000000000000000000000000000000000000000000000000000000000000000000000000000000000000000000000000000000000000000000000000000000000000000000000000000000000000000000000000 }
bx000000000000000000000000000000000000000000000000000000000000000000000000000000000000000000000000000000000000000000000000000000000000000000000000000000000000000000000000000000000000000000000000 ~
bx0000000000000000000000000000000000000000000000000000000000000000 #"
bx00000000000000000000000000000000000000000000000000000000000000000000000000000000 $"
bx000000000000000000000000000000000000000000000000000000000000000000000000000000000000000000000000 %"
bx0000000000000000000000000000000000000000000000000000000000000000000000000000000000000000000000000000000000000000 &"
bx00000000000000000000000000000000000000000000000000000000000000000000000000000000000000000000000000000000000000000000000000000000 '"
bx000000000000000000000000000000000000000000000000000000000000000000000000000000000000000000000000000000000000000000000000000000000000000000000000 ("
bx0000000000000000000000000000000000000000000000000000000000000000000000000000000000000000000000000000000000000000000000000000000000000000000000000000000000000000 )"
bx00000000000000000000000000000000000000000000000000000000000000000000000000000000000000000000000000000000000000000000000000000000000000000000000000000000000000000000000000000000000000000000000000000000000000000000000000000000 ^
1#
#10000
0#
#15000
b0xxxxxxxxxxxxxxxxxxxxxxxxxxxxxxxx c
b0xxxxxxxxxxxxxxxxxxxxxxxxxxxxxxxx o
1#
#20000
0#
b110001001110010 )
b100000000100001 *
b10110111101100 +
b1100101001010001 ,
b101111111101010 -
b1011011000111110 .
b10011100110100 /
b101100001111001 0
b101100011100010 1
b1111110011001110 2
b1111101001111110 3
b11000001100001 4
b11011001111111 5
b1110101010111 6
b1010010011100111 7
b100010101011010 8
b1100010011100100100000000100001001011011110110011001010010100010101111111101010101101100011111000100111001101000101100001111001 &
b1100010011100100100000000100001001011011110110011001010010100010101111111101010101101100011111000100111001101000101100001111001 (
b1011000111000101111110011001110111110100111111000110000011000010011011001111111000111010101011110100100111001110100010101011010 %
b1011000111000101111110011001110111110100111111000110000011000010011011001111111000111010101011110100100111001110100010101011010 '
1$
#25000
b101100001111010 0
b100010101011011 8
b10111111101111011011110001010 7"
b1010100111101100110001001000 8"
b110001010111101100011111001100 9"
b11001111110111100101001000100 :"
b110110110011101111010101111010 ;"
b1100011100001100000011111000 <"
b10001010111110111000010011010 ="
b11010101010110101011000010100 >"
b111000111111010101100100101111 ?"
b11001010000001010111111101100 @"
b1110101011001000010100111110010 A"
b111101110010000111010000100110 B"
b10000010010100100111001100010111 C"
b11101100101001001111111110100 D"
b101001010011110000000111000111 E"
b111111011010011101110011011110 F"
b1010001000111100011000011111 G"
b100011111100011011010101100 H"
b10100111000101111010100010010 I"
b1010111111100001101010000110 J"
b10111001011111110111010000111 K"
b101010000110101011100110100 L"
b111010110011000100000110111 M"
b1011010010000101111010111110 N"
b10010110101010110101000000111 O"
b1000010110000110101011001100 P"
b100110110010110111110011000010 Q"
b10100011010101111000100010110 R"
b101011000100010111010000101111 S"
b1001110001101001000000010100 T"
b1101101001101100011001011111 U"
b10100111101001110001010001110 V"
b10000101110000011010111011001 W"
b111011010001001101010110100 X"
b100010011100001010110101111110 Y"
b10010001000000011011110101010 Z"
b100110001110111101100010110001 ["
b1000101011011010011001101100 \"
b1100000111100111110010000001 ]"
b10010100110101010110100110010 ^"
b1010110100100011011010110001110 _"
b100110010111000001001110011000 `"
b10110010010100100011111010000100 a"
b1011101110110011011100100101100 b"
b11000101111101101010110111011110 c"
b101100111011110001001000101000 d"
b111110101111111100101000111110 e"
b1100000010100111100100000011100 f"
b1010111010111100100110101011110 g"
b100110101101101011101111011000 h"
b10110011111101111010110111100100 i"
b1011110101101111000011001001100 j"
b11000111110010101000100100101110 k"
b101101010110010100001111101000 l"
b111111010101000001011010001110 m"
b1100001001101110110111110111100 n"
b11110101101111011001011010010 o"
b1101100111000111101111101000 p"
b111111010001100011001010111100 q"
b100001010011010001110010010100 r"
b1000110001111100111001110000010 s"
b1111111100011010101001011000 t"
b10110010000111111010100100010 u"
b100010001011100001100010100100 v"
b1100010011100100100000000100001001011011110110011001010010100010101111111101010101101100011111000100111001101000101100001111010 &
b1100010011100100100000000100001001011011110110011001010010100010101111111101010101101100011111000100111001101000101100001111010 (
b1011000111000101111110011001110111110100111111000110000011000010011011001111111000111010101011110100100111001110100010101011011 %
b1011000111000101111110011001110111110100111111000110000011000010011011001111111000111010101011110100100111001110100010101011011 '
1#
#30000
0#
#35000
b101100001111011 0
b100010101011100 8
b1100010011100100100000000100001001011011110110011001010010100010101111111101010101101100011111000100111001101000101100001111011 &
b1100010011100100100000000100001001011011110110011001010010100010101111111101010101101100011111000100111001101000101100001111011 (
b1011000111000101111110011001110111110100111111000110000011000010011011001111111000111010101011110100100111001110100010101011100 %
b1011000111000101111110011001110111110100111111000110000011000010011011001111111000111010101011110100100111001110100010101011100 '
b10111111101111011011110001010 ;
b1000011100111000010010101110111 <
b11001010000001010111111101100 =
b111011100000101000110111101011 >
b1111001111000100110000010011110 ?
b10100111000101111010100010010 @
b101100110100010011010001001011 A
b1000110001000001101111011110010 B
b110001110010011001011101001000 C
b10100011010101111000100010110 D
b1000111100001110010101101010011 E
b10001001101110110000110111001011 F
b111001101000001001110000000101 G
b111101001100011010101111011001 H
b100110001110111101100010110001 I
b1100011000000100111011010000110 J
b1000011111100001011001110001100 K
b10110111100101011001010110111000 L
b1100111101000000100100101000000 M
b11001110101001000101010001001010 N
b101100111011110001001000101000 O
b1101000101111011011110111111000 P
b1010000000001011011110110011111 Q
b10111011010100010011011000011011 R
b1101100010111100100110010101011 S
b11010011111010010000010110101111 T
b1101100000110010000111000100110 U
b111111010101000001011010001110 V
b111001011000110000100011100110 W
b1001101000001100101100011000110 X
b1001010100011101001000101111010 Y
b110110010000011111111100100010 Z
b1011000110110010010000010110100 [
b1110000010001010111001001110100 \
b1110111011110110110010011011110 ]
b10111111110000101010101011110 7"
b1010100111101111001101111100 8"
b110001010111110111111000001010 9"
b11001111111000010101000101110 :"
b110110110011111011111111001011 ;"
b1100011100001110111011100100 <"
b10001010111111011000010111011 ="
b11010101010111011100010000110 >"
b111000111111011111111000010110 ?"
b1010001000111110001101110110 G"
b10010110101011010000010000110 O"
b10000101110000110011000111010 W"
b1010110100100101011000000001100 _"
b1010111010111110100101000101100 g"
b11110101110000000101110110100 o"
b10001000101110000110001010010000000000000000000000000000000000000000000000000000000000000000000000000000000000000000000000000000000000000000000000000000000000000000000000000000000000000000000000000000000000000000000000000000000000000000000000000000000000 ^
1#
#40000
0#
#45000
b101100001111100 0
b100010101011101 8
b10111111110001111001100110100 7"
b1010100111110001101010110000 8"
b110001011000000011010001001000 9"
b11001111111001000101000011000 :"
b110110110100001000101000011100 ;"
b1100011100010001110011010000 <"
b10001010111111111000011011100 ="
b11010101011000001101011111000 >"
b111000111111101010001011111101 ?"
b1010001001000000000011001101 G"
b10010110101011101011100000101 O"
b10000101110001001011010011011 W"
b1010110100100111010101010001010 _"
b1010111011000000100011011111010 g"
b11110101110000110010010010110 o"
b10111111110000101010101011110 ;
b1000011100111001111000110010010 <
b111011100000110110000110000000 >
b101100110100011100101010110100 A
b1000111100010000010011000000101 E
b1100011000000111001111011110000 J
b1101000101111101111101011100111 P
b111001011000111100010000111010 W
b10000111001110000100101011101110000000000000000 _
b1010100110000110011110111010111 `
b10100110101100111001010011101001 a
b10100111000101111010100010010 c
b10001101101010000000101001000101 b
b110001110010011001011101001000 e
b11101100101111011000010001010001 d
b1001110000010111000110100011011 g
b10101100101011100111000110000100 f
b11110100110001110100000110010001 i
b10001001011010001100011010000101 h
b10001101110111000010000111110001 k
b100001000010101111000111011100001 j
b11001110101001000101010001001010 m
b10110110111011001101111000100101 l
b101100111011110001001000101000 o
b100001010001010110000010011010001 n
b11000100111100100010111011011010 p
b10101111100110011000100100000010 q
b11101110111101101100100110111100000000000000000000000000000000000000000000000000000000000000000000000000000000000000000000000000000000000000000000000000000000000000000000000000000000000000000000000000000000000000000000000000000000000000000 r
b10001000101110000110001010010000000000000000000000000000000000000000000000000000000000000000000000000000000000000000000000000000000000000000000000000000000000000000000000000000000000000000000000000000000000000000000000000000010111111101111011011110001010 s
b1100010011100100100000000100001001011011110110011001010010100010101111111101010101101100011111000100111001101000101100001111100 &
b1100010011100100100000000100001001011011110110011001010010100010101111111101010101101100011111000100111001101000101100001111100 (
b1011000111000101111110011001110111110100111111000110000011000010011011001111111000111010101011110100100111001110100010101011101 %
b1011000111000101111110011001110111110100111111000110000011000010011011001111111000111010101011110100100111001110100010101011101 '
1#
#50000
0#
#55000
b101100001111101 0
b100010101011110 8
b1100010011100100100000000100001001011011110110011001010010100010101111111101010101101100011111000100111001101000101100001111101 &
b1100010011100100100000000100001001011011110110011001010010100010101111111101010101101100011111000100111001101000101100001111101 (
b1011000111000101111110011001110111110100111111000110000011000010011011001111111000111010101011110100100111001110100010101011110 %
b1011000111000101111110011001110111110100111111000110000011000010011011001111111000111010101011110100100111001110100010101011110 '
b10001000101110000110001010010000000000000000000000000000000000000000000000000000000000000000000000000000000000000000000000000000000000000000000000000000000000000000000000000000000000000000000000000000000000000000000000000000010111111101111011011110001010 ""
b11101110111101101100100110111100000000000000000000000000000000000000000000000000000000000000000000000000000000000000000000000000000000000000000000000000000000000000000000000000000000000000000010000111001110000100101011101110000000000000000 !"
b101010011000011001111011101011100000000000000000000000000000000 t
b10100110101100111001010011101001000000000000000000000000000000000000000000000000 u
b1100010011110010001011101101101000000000000000000000000000000000000000000000000000000000000000000000000000000000000000000000000000000000000000000000000000000000000000000000000000000000000000000000000000000000 }
b10101111100110011000100100000010000000000000000000000000000000000000000000000000000000000000000000000000000000000000000000000000000000000000000000000000000000000000000000000000000000000000000000000000000000000000000000000000 ~
b10100010100010101111111101010111 v
b100011110100001110001101110011001 w
b11111010101110011111111010011111 x
b101111110001100000000100000010110 y
b110010110001100111011000011010010 z
b110000101100100010011001001101111 {
b100110111000110100001011011111001 |
b10000111001110011110001100100100000000000000000 _
b1010100110001000001000101101100 `
b10100110101101000010101101010010 a
b10001101101010010000010011110111 b
b11101100101111101010110010111011 d
b10101100101011111010111001110011 f
b10001001011010011000000111011001 h
b10001000101110000110001010010000000000000000000000000000000000000000000000000000000000000000000000000000000000000000000000000000000000000000000000000000000000000000000000000000000000000000000000000000000000000000000000000000010111111110000101010101011110 s
b10111111110001111001100110100 ;
b1000011100111011011110110101101 <
b111011100001000011010100010101 >
b101100110100100110000100011101 A
b1000111100010010010000010110111 E
b1100011000001001100011101011010 J
b1101000110000000011011111010110 P
b111001011001000111111110001110 W
b10111111110011001000100001100 7"
b1010100111110100000111100100 8"
b110001011000001110101010000110 9"
b11001111111001110101000000010 :"
b110110110100010101010001101101 ;"
b1100011100010100101010111100 <"
b10001011000000011000011111101 ="
b11010101011000111110101101010 >"
b111000111111110100011111100100 ?"
b1010001001000001111000100100 G"
b10010110101100000110110000100 O"
b10000101110001100011011111100 W"
b1010110100101001010010100001000 _"
b1010111011000010100001111001000 g"
b11110101110001011110101111000 o"
1#
#60000
0#
#65000
b101100001111110 0
b100010101011111 8
b10111111110100010111011100110 7"
b1010100111110110100100011000 8"
b110001011000011010000011000100 9"
b11001111111010100100111101100 :"
b110110110100100001111010111110 ;"
b1100011100010111100010101000 <"
b10001011000000111000100011110 ="
b11010101011001101111111011100 >"
b111000111111111110110011001011 ?"
b1010001001000011101101111011 G"
b10010110101100100010000000011 O"
b10000101110001111011101011101 W"
b1010110100101011001111110000110 _"
b1010111011000100100000010010110 g"
b11110101110010001011001011010 o"
b10111111110011001000100001100 ;
b1000011100111101000100111001000 <
b111011100001010000100010101010 >
b101100110100101111011110000110 A
b1000111100010100001101101101001 E
b1100011000001011110111111000100 J
b1101000110000010111010011000101 P
b111001011001010011101011100010 W
b10000111001110110111101101011010000000000000000 _
b1010100110001001110010100000001 `
b10100110101101001100000110111011 a
b10001101101010011111111110101001 b
b11101100101111111101010100100101 d
b10101100101100001110101101100010 f
b10001001011010100011110100101101 h
b10001000101110000110001010010000000000000000000000000000000000000000000000000000000000000000000000000000000000000000000000000000000000000000000000000000000000000000000000000000000000000000000000000000000000000000000000000000010111111110001111001100110100 s
b10001000101110000110001010010000000000000000000000000000000000000000000000000000000000000000000000000000000000000000000000000000000000000000000000000000000000000000000000000000000000000000000000000000000000000000000000000000010111111110000101010101011110 ""
b11101110111101101100100110111100000000000000000000000000000000000000000000000000000000000000000000000000000000000000000000000000000000000000000000000000000000000000000000000000000000000000000010000111001110011110001100100100000000000000000 !"
b101010011000100000100010110110000000000000000000000000000000000 t
b10100110101101000010101101010010000000000000000000000000000000000000000000000000 u
b10100010100010111111101000001001 v
b100011110100010000100010000000011 w
b11111010101110110011101110001110 x
b101111110001100001100001101101010 y
b10001000101110100100000001111101100100110111100000000000000000000000000000000000000000000000000000000000000000000000000000000000000000000000000000000000000000000000000000000000000000000000000000000000000000010000111001110000111101011011101011011110001010 ,"
b10100110101100111110100110101100001111011101011100000000000000000000000000000000 *"
b10101111100110100100110111110100001011101101101000000000000000000000000000000000000000000000000000000000000000000000000000000000000000000000000000000000000000000000000000000000000000000000000000000000000000000000000000000000 +"
b101000101000101011111111010101110000000000000000000000000000000000000000000000000000000000000000 #"
b10001111010000111000110111001100100000000000000000000000000000000000000000000000000000000000000000000000000000000 $"
b11111010101110011111111010011111000000000000000000000000000000000000000000000000000000000000000000000000000000000000000000000000 %"
b1011111100011000000001000000101100000000000000000000000000000000000000000000000000000000000000000000000000000000000000000000000000000000000000000 &"
b11001011000110011101100001101001000000000000000000000000000000000000000000000000000000000000000000000000000000000000000000000000000000000000000000000000000000000 '"
b110000101100100010011001001101111000000000000000000000000000000000000000000000000000000000000000000000000000000000000000000000000000000000000000000000000000000000000000000000000 ("
b1001101110001101000010110111110010000000000000000000000000000000000000000000000000000000000000000000000000000000000000000000000000000000000000000000000000000000000000000000000000000000000000000 )"
b1100010011100100100000000100001001011011110110011001010010100010101111111101010101101100011111000100111001101000101100001111110 &
b1100010011100100100000000100001001011011110110011001010010100010101111111101010101101100011111000100111001101000101100001111110 (
b1011000111000101111110011001110111110100111111000110000011000010011011001111111000111010101011110100100111001110100010101011111 %
b1011000111000101111110011001110111110100111111000110000011000010011011001111111000111010101011110100100111001110100010101011111 '
1#
#70000
0#
#75000
b101100001111111 0
b100010101100000 8
b1100010011100100100000000100001001011011110110011001010010100010101111111101010101101100011111000100111001101000101100001111111 &
b1100010011100100100000000100001001011011110110011001010010100010101111111101010101101100011111000100111001101000101100001111111 (
b1011000111000101111110011001110111110100111111000110000011000010011011001111111000111010101011110100100111001110100010101100000 %
b1011000111000101111110011001110111110100111111000110000011000010011011001111111000111010101011110100100111001110100010101100000 '
b10001000101110100100000001111101100100110111100000000000000000000000000000000000000000000000000000000000000000000000000000000000000000000000000000000000000000000000000000000010100110101100111110100110101100100000010111001100111101011011101011011110001010 1"
b10101111100110100100110111110100001011101101101000000000000000000000000000000000000000000000000000000000000000000000000000000000101000101000101011111111010101110000000000000000000000000000000000000000000000000000000000000000 0"
b11111010101110110001110100100110000110111001100100000000000000000000000000000000000000000000000000000000000000000000000000000000 /"
b11001011000110101001011110000001000001000000101100000000000000000000000000000000000000000000000000000000000000000000000000000000000000000000000000000000000000000 ."
b1001101110001101110011100100010100011001001101111000000000000000000000000000000000000000000000000000000000000000000000000000000000000000000000000000000000000000000000000000000000000000000000000 -"
b10001000101110100100000001111101100100110111100000000000000000000000000000000000000000000000000000000000000000000000000000000000000000000000000000000000000000000000000000000000000000000000000000000000000000010000111001110100001001100010100101010101011110 ,"
b10100110101101001000000000010110000100010110110000000000000000000000000000000000 *"
b101000101000101111111010000010010000000000000000000000000000000000000000000000000000000000000000 #"
b10001111010001000010001000000001100000000000000000000000000000000000000000000000000000000000000000000000000000000 $"
b11111010101110110011101110001110000000000000000000000000000000000000000000000000000000000000000000000000000000000000000000000000 %"
b1011111100011000011000011011010100000000000000000000000000000000000000000000000000000000000000000000000000000000000000000000000000000000000000000 &"
b10001000101110000110001010010000000000000000000000000000000000000000000000000000000000000000000000000000000000000000000000000000000000000000000000000000000000000000000000000000000000000000000000000000000000000000000000000000010111111110001111001100110100 ""
b11101110111101101100100110111100000000000000000000000000000000000000000000000000000000000000000000000000000000000000000000000000000000000000000000000000000000000000000000000000000000000000000010000111001110110111101101011010000000000000000 !"
b101010011000100111001010000000100000000000000000000000000000000 t
b10100110101101001100000110111011000000000000000000000000000000000000000000000000 u
b10100010100011001111010010111011 v
b100011110100010010110110001101101 w
b11111010101111000111100001111101 x
b101111110001100010111111010111110 y
b10000111001111010001001110010000000000000000000 _
b1010100110001011011100010010110 `
b10100110101101010101100000100100 a
b10001101101010101111101001011011 b
b11101100110000001111110110001111 d
b10101100101100100010100001010001 f
b10001001011010101111100010000001 h
b10001000101110000110001010010000000000000000000000000000000000000000000000000000000000000000000000000000000000000000000000000000000000000000000000000000000000000000000000000000000000000000000000000000000000000000000000000000010111111110011001000100001100 s
b10111111110100010111011100110 ;
b1000011100111110101010111100011 <
b111011100001011101110000111111 >
b101100110100111000110111101111 A
b1000111100010110001011000011011 E
b1100011000001110001100000101110 J
b1101000110000101011000110110100 P
b111001011001011111011000110110 W
b10111111110101100110011000010 7"
b1010100111111001000001001100 8"
b110001011000100101011100000010 9"
b11001111111011010100111010110 :"
b110110110100101110100100001111 ;"
b1100011100011010011010010100 <"
b10001011000001011000100111111 ="
b11010101011010100001001001110 >"
b111001000000001001000110110010 ?"
b1010001001000101100011010010 G"
b10010110101100111101010000010 O"
b10000101110010010011110111110 W"
b1010110100101101001101000000100 _"
b1010111011000110011110101100100 g"
b11110101110010110111100111100 o"
1#
#80000
0#
